^C:\USERS\ACER ASPIRE E5-571G\DOCUMENTS\VISUAL STUDIO 2015\PROJECTS\ПРОЕКТ27\ПРОЕКТ27\DEBUG\СЕ.OBJ
C:\USERS\ACER ASPIRE E5-571G\DOCUMENTS\VISUAL STUDIO 2015\PROJECTS\Проект27\DEBUG\Проект27.ILK
C:\USERS\ACER ASPIRE E5-571G\DOCUMENTS\VISUAL STUDIO 2015\PROJECTS\Проект27\DEBUG\Проект27.EXE
C:\USERS\ACER ASPIRE E5-571G\DOCUMENTS\VISUAL STUDIO 2015\PROJECTS\ПРОЕКТ27\DEBUG\ПРОЕКТ27.PDB
